    {
      "version": "graphviz-2.46.1",
      "archives": [
        {
          "format": "tar.xz",
          "url": "https://gitlab.com/graphviz/graphviz/-/package_files/7097037/download",
          "md5": "https://gitlab.com/graphviz/graphviz/-/package_files/7097038/download"
        },
        {
          "format": "tar.gz",
          "url": "https://gitlab.com/graphviz/graphviz/-/package_files/7097035/download",
          "md5": "https://gitlab.com/graphviz/graphviz/-/package_files/7097036/download"
        }
      ]
    }
